[
  {
    "type": "tab",
    "id": "9b693f75.bd18d",
    "label": "Flow 1"
  },
  {
    "id": "69180fa4.72577",
    "type": "debug",
    "z": "9b693f75.bd18d",
    "name": "",
    "active": true,
    "console": "false",
    "complete": "false",
    "x": 537,
    "y": 104,
    "wires": []
  },
  {
    "id": "57f5f95c.805818",
    "type": "inject",
    "z": "9b693f75.bd18d",
    "name": "teste",
    "topic": "/teste",
    "payload": "",
    "payloadType": "date",
    "repeat": "1",
    "crontab": "",
    "once": true,
    "x": 211,
    "y": 92,
    "wires": [
      [
        "69180fa4.72577"
      ]
    ]
  }
]